[
    {
        "@context": "http://schema.org",
        "@type": "FlightReservation",
        "reservationFor": {
            "@type": "Flight",
            "airline": {
                "@type": "Airline",
                "iataCode": "AF"
            },
            "arrivalAirport": {
                "@type": "Airport",
                "address": {
                    "@type": "PostalAddress",
                    "addressCountry": "IN"
                },
                "geo": {
                    "@type": "GeoCoordinates",
                    "latitude": 13.200400352478027,
                    "longitude": 77.71070098876953
                },
                "iataCode": "BLR"
            },
            "arrivalTime": {
                "@type": "QDateTime",
                "@value": "2007-12-04T00:35:00+05:30",
                "timezone": "Asia/Kolkata"
            },
            "departureAirport": {
                "@type": "Airport",
                "address": {
                    "@type": "PostalAddress",
                    "addressCountry": "FR"
                },
                "geo": {
                    "@type": "GeoCoordinates",
                    "latitude": 49.009700775146484,
                    "longitude": 2.5477800369262695
                },
                "iataCode": "CDG"
            },
            "departureDay": "2007-12-03",
            "departureTime": {
                "@type": "QDateTime",
                "@value": "2007-12-03T11:00:00+01:00",
                "timezone": "Europe/Paris"
            },
            "flightNumber": "192"
        },
        "reservationNumber": "XXX007",
        "reservationStatus": "http://schema.org/ReservationConfirmed"
    }
]
