[
    {
        "@context": "http://schema.org",
        "@type": "FlightReservation",
        "modifiedTime": "2017-01-01T12:34:56+01:00",
        "reservationFor": {
            "@type": "Flight",
            "airline": {
                "@type": "Airline",
                "iataCode": "DL"
            },
            "arrivalAirport": {
                "@type": "Airport",
                "address": {
                    "@type": "PostalAddress",
                    "addressCountry": "US"
                },
                "geo": {
                    "@type": "GeoCoordinates",
                    "latitude": 47.4452018737793,
                    "longitude": -122.2969970703125
                },
                "iataCode": "SEA"
            },
            "arrivalTime": {
                "@type": "QDateTime",
                "@value": "2017-01-21T08:11:00-08:00",
                "timezone": "America/Los_Angeles"
            },
            "departureAirport": {
                "@type": "Airport",
                "address": {
                    "@type": "PostalAddress",
                    "addressCountry": "CN"
                },
                "geo": {
                    "@type": "GeoCoordinates",
                    "latitude": 22.315900802612305,
                    "longitude": 113.93699645996094
                },
                "iataCode": "HKG"
            },
            "departureDay": "2017-01-20",
            "departureTime": {
                "@type": "QDateTime",
                "@value": "2017-01-20T11:45:00+08:00",
                "timezone": "Asia/Hong_Kong"
            },
            "flightNumber": "38"
        },
        "reservationStatus": "http://schema.org/ReservationConfirmed",
        "underName": {
            "@type": "Person",
            "familyName": "KONQUI",
            "givenName": "DOCTOR MR",
            "name": "DOCTOR MR KONQUI"
        }
    },
    {
        "@context": "http://schema.org",
        "@type": "FlightReservation",
        "modifiedTime": "2017-01-01T12:34:56+01:00",
        "reservationFor": {
            "@type": "Flight",
            "airline": {
                "@type": "Airline",
                "iataCode": "DL"
            },
            "arrivalAirport": {
                "@type": "Airport",
                "address": {
                    "@type": "PostalAddress",
                    "addressCountry": "US"
                },
                "geo": {
                    "@type": "GeoCoordinates",
                    "latitude": 47.4452018737793,
                    "longitude": -122.2969970703125
                },
                "iataCode": "SEA"
            },
            "arrivalTime": {
                "@type": "QDateTime",
                "@value": "2017-01-21T08:11:00-08:00",
                "timezone": "America/Los_Angeles"
            },
            "departureAirport": {
                "@type": "Airport",
                "address": {
                    "@type": "PostalAddress",
                    "addressCountry": "CN"
                },
                "geo": {
                    "@type": "GeoCoordinates",
                    "latitude": 22.315900802612305,
                    "longitude": 113.93699645996094
                },
                "iataCode": "HKG"
            },
            "departureDay": "2017-01-20",
            "departureTime": {
                "@type": "QDateTime",
                "@value": "2017-01-20T11:45:00+08:00",
                "timezone": "Asia/Hong_Kong"
            },
            "flightNumber": "38"
        },
        "reservationStatus": "http://schema.org/ReservationConfirmed",
        "underName": {
            "@type": "Person",
            "familyName": "KONQUI",
            "givenName": "KATIE MS",
            "name": "KATIE MS KONQUI"
        }
    },
    {
        "@context": "http://schema.org",
        "@type": "FlightReservation",
        "modifiedTime": "2017-01-01T12:34:56+01:00",
        "reservationFor": {
            "@type": "Flight",
            "airline": {
                "@type": "Airline",
                "iataCode": "DL"
            },
            "arrivalAirport": {
                "@type": "Airport",
                "address": {
                    "@type": "PostalAddress",
                    "addressCountry": "US"
                },
                "geo": {
                    "@type": "GeoCoordinates",
                    "latitude": 47.4452018737793,
                    "longitude": -122.2969970703125
                },
                "iataCode": "SEA"
            },
            "arrivalTime": {
                "@type": "QDateTime",
                "@value": "2017-01-21T08:11:00-08:00",
                "timezone": "America/Los_Angeles"
            },
            "departureAirport": {
                "@type": "Airport",
                "address": {
                    "@type": "PostalAddress",
                    "addressCountry": "CN"
                },
                "geo": {
                    "@type": "GeoCoordinates",
                    "latitude": 22.315900802612305,
                    "longitude": 113.93699645996094
                },
                "iataCode": "HKG"
            },
            "departureDay": "2017-01-20",
            "departureTime": {
                "@type": "QDateTime",
                "@value": "2017-01-20T11:45:00+08:00",
                "timezone": "Asia/Hong_Kong"
            },
            "flightNumber": "38"
        },
        "reservationStatus": "http://schema.org/ReservationConfirmed",
        "underName": {
            "@type": "Person",
            "familyName": "KONQUI",
            "givenName": "LITTLE",
            "name": "LITTLE KONQUI"
        }
    }
]
