[
    {
        "@context": "http://schema.org",
        "@type": "FlightReservation",
        "airplaneSeat": "2F",
        "passengerSequenceNumber": "25",
        "reservationFor": {
            "@type": "Flight",
            "airline": {
                "@type": "Airline",
                "iataCode": "AF"
            },
            "arrivalAirport": {
                "@type": "Airport",
                "iataCode": "CDG"
            },
            "departureAirport": {
                "@type": "Airport",
                "iataCode": "GVA"
            },
            "departureDay": "2018-12-05",
            "flightNumber": "123"
        },
        "reservationNumber": "ABC123",
        "reservationStatus": "http://schema.org/ReservationConfirmed",
        "reservedTicket": {
            "@type": "Ticket",
            "ticketToken": "aztecCode:M1GRANDMAIRE/MELANIE  EABC123 GVACDGAF 0123 339C002F0025 130>5002A0571234567890  AF AF 1234567890123456    Y^18ABCDEFGH"
        },
        "underName": {
           "@type": "Person",
           "familyName": "GRANDMAIRE",
           "givenName": "MELANIE"
        }
    }
]
