{
    "filter": [
        {
            "match": "^\\d{13}.*\\S{6}(\\.\\.\\S{5}| +)?$",
            "property": "",
            "type": "Barcode"
        }
    ],
    "function": "parsePdf",
    "script": "renfe.js",
    "type": "Pdf"
}
